{
  "type": "service_account",
  "project_id": "eber-ios-5cf64",
  "private_key_id": "6b317c263e3c5bae67e23c909bae419f75d9b921",
  "private_key": "-----BEGIN PRIVATE KEY-----\nMIIEvgIBADANBgkqhkiG9w0BAQEFAASCBKgwggSkAgEAAoIBAQD0d7NSVwKnZ1Oo\nTe8E1VjSrGtMCDICNdo1EpIUnWwZDfg8ZV1dEE+XuGh9VRForCNTfATUz330jZ9y\nNCBAAMpQ/f+HIBaPO98kdmx3P0Sr2x6LqXti1tnnjIxLNDWySS6841KZE1UicUo8\nG3CV2AcEOYK9ov6q0LrLtBtaNNHNefjtA6sWC7NUhiJ2G3XwxfJkIaVrHzJ/d4H2\nMl42fSRXvJGUpHemPUoM5wDyT1zDuzuw2bZjfSRYbUDKlReZgnGoduW/F9CzZJkS\nrXdFqte8ZGrKlJffbgDdcyFWonA93QHCK+6UHER3rtOtnlPSo8fo1sj+CgXnQX3L\nxMQWp1QZAgMBAAECggEBAN7PVjW+reGLcBjeZvF9zYW9tdFHSuTu1iE2+sMlM0em\njs/lBvHyEsjSPxGz/bjr4wqM5w5ayo6goWkCDz6mOb8VsNYkLcuAIwFlmbgZhuon\nPLDH2HgeH95FH/zO6f3Da4Cmozp2/0nz/VfJHpTDnqmADSPvsbJXqVhNn/xYVbuy\nHknpg9a/uyZM8TVPEAmYBvKiS3Xg6ai9kXliHZqSrYzyoiAU/5ODlqyldgSmJTA4\n9FdAhwaL2CkeK5v0pcoyfITZEDPa2JgrUncpRHAsQCLV4doBLTUxNL64ookT7BW+\n+Lt4LvKtwOUZXJX4oIYRRq2HMFmW1PgSo+dGoZrT5XECgYEA/6A0qlF3haLqgFUq\nuN0Srmvu6TTPkXVNcpA+AqlvKpGE9ls8bg7OWVA7IMWgJBj9ywAPF+19v7kuzZHD\nReuO9YDnKuXAACnZ0sGJds5VGGc/IgpNW7ZsE08ebVBudoGI5p0RwwzdI7COT8rm\nc49AJLqHBJ2Js/mJK//dXJOLw70CgYEA9NNQMpt2QCg/09o2rsSS87EvMu4qSt1u\ne7uSMIa/tNVMZrBqjgO3KBwNmGCCNjN0aSAIOAGxNPwQ72i8EtaixBH4kQ2tfvst\npfgmVK10QML2dCVoZfNCw9myTBWR+zqDYsXiFmUs1EM7cMCEGbd/tx+7SZvcJIUk\nUc4wtwE0aY0CgYEArNGPqXIIXyWkanyptG9pmNhJngphJlLquEBCXCRWjq3w+Wj3\nMuT5prIyN1bEjIME2gBBNAkQkdTNipc4MIYvkVTDdGH9a17f77d+iv610xjCOu5C\nHHX5HRjJVlghRicO+fJItth0jRNpMxLWuFupnusoKvuixDU5ArEp49OwkvUCgYA9\nrCGOrgTKwpjZiCWwPsp54s9t9/rlYwRa3PRFjxwptHWLhLNC1QLFctOl5+HFP476\nkFwhp6N5ImottOdzo2fbFl/UQmrLCwEDxw/40rzvN22X8nhq/i16YpN8gQ6GB8Zj\nElASriftzIXjsEtWoxfkDHVEZKO++18b0GILJ52JXQKBgCwqs1IRHO/j/p28N3b/\nLKbicnkOhBszjfhdE57FMZnkyrFHWeao8an/RGEWGd23F46MUygNyPiKv5+AP+Ax\nNh1Zo8JuOg3FrO6vNix29erRq4U83JdE090V8zYe2L/BFqBSfdi/JiqsWUU7oDwe\nNuBE3Uxu9Nn5A1n1aP4xTUEq\n-----END PRIVATE KEY-----\n",
  "client_email": "firebase-crashreporting-8wit5@eber-ios-5cf64.iam.gserviceaccount.com",
  "client_id": "104064158644538405632",
  "auth_uri": "https://accounts.google.com/o/oauth2/auth",
  "token_uri": "https://accounts.google.com/o/oauth2/token",
  "auth_provider_x509_cert_url": "https://www.googleapis.com/oauth2/v1/certs",
  "client_x509_cert_url": "https://www.googleapis.com/robot/v1/metadata/x509/firebase-crashreporting-8wit5%40eber-ios-5cf64.iam.gserviceaccount.com"
}
